SoC/SIM/sim_timer_test.log
--- [TIMER] Sim ---
vsim -c -coverage timer_vopt \
	+UVM_TESTNAME=timer_test \
	-do "coverage save -onexit timer_coverage.ucdb; run -all; quit"
Reading C:/app/QuestaSim/tcl/vsim/pref.tcl 

# 10.2c

# vsim +UVM_TESTNAME=timer_test -coverage -do {coverage save -onexit timer_coverage.ucdb; run -all; quit} -c timer_vopt 
# //  Questa Sim-64
# //  Version 10.2c Unknown Platform Jul 19 2013
# //
# //  Copyright 1991-2013 Mentor Graphics Corporation
# //  All Rights Reserved.
# //
# //  THIS WORK CONTAINS TRADE SECRET AND PROPRIETARY INFORMATION
# //  WHICH IS THE PROPERTY OF MENTOR GRAPHICS CORPORATION OR ITS
# //  LICENSORS AND IS SUBJECT TO LICENSE TERMS.
# //
# Loading sv_std.std
# Loading mtiUvm.uvm_pkg
# Loading work.timer_pkg(fast)
# Loading work.timer_top_tb(fast)
# Loading work.clk_rst_inf(fast)
# Loading work.soc_inf(fast)
# Loading work.Timer(fast)
# Loading work.timer_sva(fast)
# Loading mtiUvm.questa_uvm_pkg(fast)
# Loading C:/app/QuestaSim/uvm-1.1d\win64\uvm_dpi.dll
# coverage save -onexit timer_coverage.ucdb 
#  run -all 
# ----------------------------------------------------------------
# UVM-1.1d
# (C) 2007-2013 Mentor Graphics Corporation
# (C) 2007-2013 Cadence Design Systems, Inc.
# (C) 2006-2013 Synopsys, Inc.
# (C) 2011-2013 Cypress Semiconductor Corp.
# ----------------------------------------------------------------
# 
#   ***********       IMPORTANT RELEASE NOTES         ************
# 
#   You are using a version of the UVM library that has been compiled
#   with `UVM_NO_DEPRECATED undefined.
#   See http://www.eda.org/svdb/view.php?id=3313 for more details.
# 
#   You are using a version of the UVM library that has been compiled
#   with `UVM_OBJECT_MUST_HAVE_CONSTRUCTOR undefined.
#   See http://www.eda.org/svdb/view.php?id=3770 for more details.
# 
#       (Specify +UVM_NO_RELNOTES to turn off this notice)
# 
# UVM_INFO verilog_src/questa_uvm_pkg-1.2/src/questa_uvm_pkg.sv(215) @ 0: reporter [Questa UVM] QUESTA_UVM-1.2.2
# UVM_INFO verilog_src/questa_uvm_pkg-1.2/src/questa_uvm_pkg.sv(217) @ 0: reporter [Questa UVM]  questa_uvm::init(+struct)
# UVM_INFO @ 0: reporter [RNTST] Running test timer_test...
# UVM_INFO C:/Documents/DoAnThietKeViMach/Project/SoC/VERIFICATION/Sequence/timer_sequence.sv(9) @ 0: uvm_test_top.env.sequencer@@seq [TIMER_SEQ] Start Timer default/corner/stress sequence
# UVM_INFO C:/Documents/DoAnThietKeViMach/Project/SoC/VERIFICATION/Scoreboard/timer_scoreboard.sv(44) @ 55000: uvm_test_top.env.scoreboard [TIMER_SCB] WRITE PASS CONTROL addr=20000000 data=00000000 awprot=000
# UVM_INFO C:/Documents/DoAnThietKeViMach/Project/SoC/VERIFICATION/Scoreboard/timer_scoreboard.sv(82) @ 105000: uvm_test_top.env.scoreboard [TIMER_SCB] READ PASS addr=20000000 got=00000000
# UVM_INFO C:/Documents/DoAnThietKeViMach/Project/SoC/VERIFICATION/Scoreboard/timer_scoreboard.sv(82) @ 145000: uvm_test_top.env.scoreboard [TIMER_SCB] READ PASS addr=20000004 got=00000000
# UVM_INFO C:/Documents/DoAnThietKeViMach/Project/SoC/VERIFICATION/Scoreboard/timer_scoreboard.sv(71) @ 185000: uvm_test_top.env.scoreboard [TIMER_SCB] COUNT volatile read = 00000000
# UVM_INFO C:/Documents/DoAnThietKeViMach/Project/SoC/VERIFICATION/Scoreboard/timer_scoreboard.sv(82) @ 225000: uvm_test_top.env.scoreboard [TIMER_SCB] READ PASS addr=2000000c got=deadbeef
# UVM_INFO C:/Documents/DoAnThietKeViMach/Project/SoC/VERIFICATION/Scoreboard/timer_scoreboard.sv(52) @ 275000: uvm_test_top.env.scoreboard [TIMER_SCB] WRITE PASS PERIOD addr=20000004 data=00000005 awprot=001
# UVM_INFO C:/Documents/DoAnThietKeViMach/Project/SoC/VERIFICATION/Scoreboard/timer_scoreboard.sv(82) @ 325000: uvm_test_top.env.scoreboard [TIMER_SCB] READ PASS addr=20000004 got=00000005
# UVM_INFO C:/Documents/DoAnThietKeViMach/Project/SoC/VERIFICATION/Scoreboard/timer_scoreboard.sv(44) @ 375000: uvm_test_top.env.scoreboard [TIMER_SCB] WRITE PASS CONTROL addr=20000000 data=00000001 awprot=010
# UVM_INFO C:/Documents/DoAnThietKeViMach/Project/SoC/VERIFICATION/Scoreboard/timer_scoreboard.sv(71) @ 425000: uvm_test_top.env.scoreboard [TIMER_SCB] COUNT volatile read = 00000003
# UVM_INFO C:/Documents/DoAnThietKeViMach/Project/SoC/VERIFICATION/Scoreboard/timer_scoreboard.sv(71) @ 465000: uvm_test_top.env.scoreboard [TIMER_SCB] COUNT volatile read = 00000001
# UVM_INFO C:/Documents/DoAnThietKeViMach/Project/SoC/VERIFICATION/Scoreboard/timer_scoreboard.sv(71) @ 505000: uvm_test_top.env.scoreboard [TIMER_SCB] COUNT volatile read = 00000005
# UVM_INFO C:/Documents/DoAnThietKeViMach/Project/SoC/VERIFICATION/Scoreboard/timer_scoreboard.sv(71) @ 545000: uvm_test_top.env.scoreboard [TIMER_SCB] COUNT volatile read = 00000003
# UVM_INFO C:/Documents/DoAnThietKeViMach/Project/SoC/VERIFICATION/Scoreboard/timer_scoreboard.sv(71) @ 585000: uvm_test_top.env.scoreboard [TIMER_SCB] COUNT volatile read = 00000001
# UVM_INFO C:/Documents/DoAnThietKeViMach/Project/SoC/VERIFICATION/Scoreboard/timer_scoreboard.sv(71) @ 625000: uvm_test_top.env.scoreboard [TIMER_SCB] COUNT volatile read = 00000005
# UVM_INFO C:/Documents/DoAnThietKeViMach/Project/SoC/VERIFICATION/Scoreboard/timer_scoreboard.sv(71) @ 665000: uvm_test_top.env.scoreboard [TIMER_SCB] COUNT volatile read = 00000003
# UVM_INFO C:/Documents/DoAnThietKeViMach/Project/SoC/VERIFICATION/Scoreboard/timer_scoreboard.sv(71) @ 705000: uvm_test_top.env.scoreboard [TIMER_SCB] COUNT volatile read = 00000001
# UVM_INFO C:/Documents/DoAnThietKeViMach/Project/SoC/VERIFICATION/Scoreboard/timer_scoreboard.sv(71) @ 745000: uvm_test_top.env.scoreboard [TIMER_SCB] COUNT volatile read = 00000005
# UVM_INFO C:/Documents/DoAnThietKeViMach/Project/SoC/VERIFICATION/Scoreboard/timer_scoreboard.sv(71) @ 785000: uvm_test_top.env.scoreboard [TIMER_SCB] COUNT volatile read = 00000003
# UVM_INFO C:/Documents/DoAnThietKeViMach/Project/SoC/VERIFICATION/Scoreboard/timer_scoreboard.sv(71) @ 825000: uvm_test_top.env.scoreboard [TIMER_SCB] COUNT volatile read = 00000001
# UVM_INFO C:/Documents/DoAnThietKeViMach/Project/SoC/VERIFICATION/Scoreboard/timer_scoreboard.sv(71) @ 865000: uvm_test_top.env.scoreboard [TIMER_SCB] COUNT volatile read = 00000005
# UVM_INFO C:/Documents/DoAnThietKeViMach/Project/SoC/VERIFICATION/Scoreboard/timer_scoreboard.sv(71) @ 905000: uvm_test_top.env.scoreboard [TIMER_SCB] COUNT volatile read = 00000003
# UVM_INFO C:/Documents/DoAnThietKeViMach/Project/SoC/VERIFICATION/Scoreboard/timer_scoreboard.sv(71) @ 945000: uvm_test_top.env.scoreboard [TIMER_SCB] COUNT volatile read = 00000001
# UVM_INFO C:/Documents/DoAnThietKeViMach/Project/SoC/VERIFICATION/Scoreboard/timer_scoreboard.sv(71) @ 985000: uvm_test_top.env.scoreboard [TIMER_SCB] COUNT volatile read = 00000005
# UVM_INFO C:/Documents/DoAnThietKeViMach/Project/SoC/VERIFICATION/Scoreboard/timer_scoreboard.sv(71) @ 1025000: uvm_test_top.env.scoreboard [TIMER_SCB] COUNT volatile read = 00000003
# UVM_INFO C:/Documents/DoAnThietKeViMach/Project/SoC/VERIFICATION/Scoreboard/timer_scoreboard.sv(71) @ 1065000: uvm_test_top.env.scoreboard [TIMER_SCB] COUNT volatile read = 00000001
# UVM_INFO C:/Documents/DoAnThietKeViMach/Project/SoC/VERIFICATION/Scoreboard/timer_scoreboard.sv(71) @ 1105000: uvm_test_top.env.scoreboard [TIMER_SCB] COUNT volatile read = 00000005
# UVM_INFO C:/Documents/DoAnThietKeViMach/Project/SoC/VERIFICATION/Scoreboard/timer_scoreboard.sv(71) @ 1145000: uvm_test_top.env.scoreboard [TIMER_SCB] COUNT volatile read = 00000003
# UVM_INFO C:/Documents/DoAnThietKeViMach/Project/SoC/VERIFICATION/Scoreboard/timer_scoreboard.sv(71) @ 1185000: uvm_test_top.env.scoreboard [TIMER_SCB] COUNT volatile read = 00000001
# UVM_INFO C:/Documents/DoAnThietKeViMach/Project/SoC/VERIFICATION/Scoreboard/timer_scoreboard.sv(44) @ 1235000: uvm_test_top.env.scoreboard [TIMER_SCB] WRITE PASS CONTROL addr=20000000 data=00000000 awprot=011
# UVM_INFO C:/Documents/DoAnThietKeViMach/Project/SoC/VERIFICATION/Scoreboard/timer_scoreboard.sv(82) @ 1285000: uvm_test_top.env.scoreboard [TIMER_SCB] READ PASS addr=20000000 got=00000000
# UVM_INFO C:/Documents/DoAnThietKeViMach/Project/SoC/VERIFICATION/Scoreboard/timer_scoreboard.sv(82) @ 1325000: uvm_test_top.env.scoreboard [TIMER_SCB] READ PASS addr=2000000c got=deadbeef
# UVM_INFO C:/Documents/DoAnThietKeViMach/Project/SoC/VERIFICATION/Scoreboard/timer_scoreboard.sv(52) @ 1375000: uvm_test_top.env.scoreboard [TIMER_SCB] WRITE PASS PERIOD addr=20000004 data=00000000 awprot=101
# UVM_INFO C:/Documents/DoAnThietKeViMach/Project/SoC/VERIFICATION/Scoreboard/timer_scoreboard.sv(44) @ 1435000: uvm_test_top.env.scoreboard [TIMER_SCB] WRITE PASS CONTROL addr=20000000 data=00000001 awprot=101
# UVM_INFO C:/Documents/DoAnThietKeViMach/Project/SoC/VERIFICATION/Scoreboard/timer_scoreboard.sv(71) @ 1485000: uvm_test_top.env.scoreboard [TIMER_SCB] COUNT volatile read = 00000003
# UVM_INFO C:/Documents/DoAnThietKeViMach/Project/SoC/VERIFICATION/Scoreboard/timer_scoreboard.sv(71) @ 1525000: uvm_test_top.env.scoreboard [TIMER_SCB] COUNT volatile read = 00000007
# UVM_INFO C:/Documents/DoAnThietKeViMach/Project/SoC/VERIFICATION/Scoreboard/timer_scoreboard.sv(71) @ 1565000: uvm_test_top.env.scoreboard [TIMER_SCB] COUNT volatile read = 0000000b
# UVM_INFO C:/Documents/DoAnThietKeViMach/Project/SoC/VERIFICATION/Scoreboard/timer_scoreboard.sv(71) @ 1605000: uvm_test_top.env.scoreboard [TIMER_SCB] COUNT volatile read = 0000000f
# UVM_INFO C:/Documents/DoAnThietKeViMach/Project/SoC/VERIFICATION/Scoreboard/timer_scoreboard.sv(71) @ 1645000: uvm_test_top.env.scoreboard [TIMER_SCB] COUNT volatile read = 00000013
# UVM_INFO C:/Documents/DoAnThietKeViMach/Project/SoC/VERIFICATION/Scoreboard/timer_scoreboard.sv(71) @ 1685000: uvm_test_top.env.scoreboard [TIMER_SCB] COUNT volatile read = 00000017
# UVM_INFO C:/Documents/DoAnThietKeViMach/Project/SoC/VERIFICATION/Scoreboard/timer_scoreboard.sv(71) @ 1725000: uvm_test_top.env.scoreboard [TIMER_SCB] COUNT volatile read = 0000001b
# UVM_INFO C:/Documents/DoAnThietKeViMach/Project/SoC/VERIFICATION/Scoreboard/timer_scoreboard.sv(71) @ 1765000: uvm_test_top.env.scoreboard [TIMER_SCB] COUNT volatile read = 0000001f
# UVM_INFO C:/Documents/DoAnThietKeViMach/Project/SoC/VERIFICATION/Scoreboard/timer_scoreboard.sv(44) @ 1815000: uvm_test_top.env.scoreboard [TIMER_SCB] WRITE PASS CONTROL addr=20000000 data=00000000 awprot=110
# UVM_INFO C:/Documents/DoAnThietKeViMach/Project/SoC/VERIFICATION/Scoreboard/timer_scoreboard.sv(52) @ 1875000: uvm_test_top.env.scoreboard [TIMER_SCB] WRITE PASS PERIOD addr=20000004 data=00000001 awprot=110
# UVM_INFO C:/Documents/DoAnThietKeViMach/Project/SoC/VERIFICATION/Scoreboard/timer_scoreboard.sv(44) @ 1935000: uvm_test_top.env.scoreboard [TIMER_SCB] WRITE PASS CONTROL addr=20000000 data=00000001 awprot=110
# UVM_INFO C:/Documents/DoAnThietKeViMach/Project/SoC/VERIFICATION/Scoreboard/timer_scoreboard.sv(71) @ 1985000: uvm_test_top.env.scoreboard [TIMER_SCB] COUNT volatile read = 00000001
# UVM_INFO C:/Documents/DoAnThietKeViMach/Project/SoC/VERIFICATION/Scoreboard/timer_scoreboard.sv(71) @ 2025000: uvm_test_top.env.scoreboard [TIMER_SCB] COUNT volatile read = 00000001
# UVM_INFO C:/Documents/DoAnThietKeViMach/Project/SoC/VERIFICATION/Scoreboard/timer_scoreboard.sv(71) @ 2065000: uvm_test_top.env.scoreboard [TIMER_SCB] COUNT volatile read = 00000001
# UVM_INFO C:/Documents/DoAnThietKeViMach/Project/SoC/VERIFICATION/Scoreboard/timer_scoreboard.sv(71) @ 2105000: uvm_test_top.env.scoreboard [TIMER_SCB] COUNT volatile read = 00000001
# UVM_INFO C:/Documents/DoAnThietKeViMach/Project/SoC/VERIFICATION/Scoreboard/timer_scoreboard.sv(71) @ 2145000: uvm_test_top.env.scoreboard [TIMER_SCB] COUNT volatile read = 00000001
# UVM_INFO C:/Documents/DoAnThietKeViMach/Project/SoC/VERIFICATION/Scoreboard/timer_scoreboard.sv(71) @ 2185000: uvm_test_top.env.scoreboard [TIMER_SCB] COUNT volatile read = 00000001
# UVM_INFO C:/Documents/DoAnThietKeViMach/Project/SoC/VERIFICATION/Scoreboard/timer_scoreboard.sv(71) @ 2225000: uvm_test_top.env.scoreboard [TIMER_SCB] COUNT volatile read = 00000001
# UVM_INFO C:/Documents/DoAnThietKeViMach/Project/SoC/VERIFICATION/Scoreboard/timer_scoreboard.sv(71) @ 2265000: uvm_test_top.env.scoreboard [TIMER_SCB] COUNT volatile read = 00000001
# UVM_INFO C:/Documents/DoAnThietKeViMach/Project/SoC/VERIFICATION/Scoreboard/timer_scoreboard.sv(71) @ 2305000: uvm_test_top.env.scoreboard [TIMER_SCB] COUNT volatile read = 00000001
# UVM_INFO C:/Documents/DoAnThietKeViMach/Project/SoC/VERIFICATION/Scoreboard/timer_scoreboard.sv(71) @ 2345000: uvm_test_top.env.scoreboard [TIMER_SCB] COUNT volatile read = 00000001
# UVM_INFO C:/Documents/DoAnThietKeViMach/Project/SoC/VERIFICATION/Scoreboard/timer_scoreboard.sv(71) @ 2385000: uvm_test_top.env.scoreboard [TIMER_SCB] COUNT volatile read = 00000001
# UVM_INFO C:/Documents/DoAnThietKeViMach/Project/SoC/VERIFICATION/Scoreboard/timer_scoreboard.sv(71) @ 2425000: uvm_test_top.env.scoreboard [TIMER_SCB] COUNT volatile read = 00000001
# UVM_INFO C:/Documents/DoAnThietKeViMach/Project/SoC/VERIFICATION/Scoreboard/timer_scoreboard.sv(44) @ 2475000: uvm_test_top.env.scoreboard [TIMER_SCB] WRITE PASS CONTROL addr=20000000 data=00000000 awprot=111
# UVM_INFO C:/Documents/DoAnThietKeViMach/Project/SoC/VERIFICATION/Scoreboard/timer_scoreboard.sv(52) @ 2535000: uvm_test_top.env.scoreboard [TIMER_SCB] WRITE PASS PERIOD addr=20000004 data=ffffffff awprot=111
# UVM_INFO C:/Documents/DoAnThietKeViMach/Project/SoC/VERIFICATION/Scoreboard/timer_scoreboard.sv(82) @ 2585000: uvm_test_top.env.scoreboard [TIMER_SCB] READ PASS addr=20000004 got=ffffffff
# UVM_INFO C:/Documents/DoAnThietKeViMach/Project/SoC/VERIFICATION/Scoreboard/timer_scoreboard.sv(59) @ 2635000: uvm_test_top.env.scoreboard [TIMER_SCB] WRITE IGNORED addr=2000000c data=12345678 awprot=011
# UVM_INFO C:/Documents/DoAnThietKeViMach/Project/SoC/VERIFICATION/Scoreboard/timer_scoreboard.sv(82) @ 2685000: uvm_test_top.env.scoreboard [TIMER_SCB] READ PASS addr=2000000c got=deadbeef
# UVM_INFO C:/Documents/DoAnThietKeViMach/Project/SoC/VERIFICATION/Scoreboard/timer_scoreboard.sv(44) @ 2735000: uvm_test_top.env.scoreboard [TIMER_SCB] WRITE PASS CONTROL addr=20000000 data=00000000 awprot=000
# UVM_INFO C:/Documents/DoAnThietKeViMach/Project/SoC/VERIFICATION/Scoreboard/timer_scoreboard.sv(82) @ 2785000: uvm_test_top.env.scoreboard [TIMER_SCB] READ PASS addr=20000000 got=00000000
# UVM_INFO C:/Documents/DoAnThietKeViMach/Project/SoC/VERIFICATION/Scoreboard/timer_scoreboard.sv(52) @ 2835000: uvm_test_top.env.scoreboard [TIMER_SCB] WRITE PASS PERIOD addr=20000004 data=00000001 awprot=000
# UVM_INFO C:/Documents/DoAnThietKeViMach/Project/SoC/VERIFICATION/Scoreboard/timer_scoreboard.sv(82) @ 2885000: uvm_test_top.env.scoreboard [TIMER_SCB] READ PASS addr=20000004 got=00000001
# UVM_INFO C:/Documents/DoAnThietKeViMach/Project/SoC/VERIFICATION/Scoreboard/timer_scoreboard.sv(44) @ 2935000: uvm_test_top.env.scoreboard [TIMER_SCB] WRITE PASS CONTROL addr=20000000 data=00000001 awprot=001
# UVM_INFO C:/Documents/DoAnThietKeViMach/Project/SoC/VERIFICATION/Scoreboard/timer_scoreboard.sv(82) @ 2985000: uvm_test_top.env.scoreboard [TIMER_SCB] READ PASS addr=20000000 got=00000001
# UVM_INFO C:/Documents/DoAnThietKeViMach/Project/SoC/VERIFICATION/Scoreboard/timer_scoreboard.sv(52) @ 3035000: uvm_test_top.env.scoreboard [TIMER_SCB] WRITE PASS PERIOD addr=20000004 data=00000002 awprot=001
# UVM_INFO C:/Documents/DoAnThietKeViMach/Project/SoC/VERIFICATION/Scoreboard/timer_scoreboard.sv(82) @ 3085000: uvm_test_top.env.scoreboard [TIMER_SCB] READ PASS addr=20000004 got=00000002
# UVM_INFO C:/Documents/DoAnThietKeViMach/Project/SoC/VERIFICATION/Scoreboard/timer_scoreboard.sv(44) @ 3135000: uvm_test_top.env.scoreboard [TIMER_SCB] WRITE PASS CONTROL addr=20000000 data=00000000 awprot=010
# UVM_INFO C:/Documents/DoAnThietKeViMach/Project/SoC/VERIFICATION/Scoreboard/timer_scoreboard.sv(82) @ 3185000: uvm_test_top.env.scoreboard [TIMER_SCB] READ PASS addr=20000000 got=00000000
# UVM_INFO C:/Documents/DoAnThietKeViMach/Project/SoC/VERIFICATION/Scoreboard/timer_scoreboard.sv(52) @ 3235000: uvm_test_top.env.scoreboard [TIMER_SCB] WRITE PASS PERIOD addr=20000004 data=00000003 awprot=010
# UVM_INFO C:/Documents/DoAnThietKeViMach/Project/SoC/VERIFICATION/Scoreboard/timer_scoreboard.sv(82) @ 3285000: uvm_test_top.env.scoreboard [TIMER_SCB] READ PASS addr=20000004 got=00000003
# UVM_INFO C:/Documents/DoAnThietKeViMach/Project/SoC/VERIFICATION/Scoreboard/timer_scoreboard.sv(44) @ 3335000: uvm_test_top.env.scoreboard [TIMER_SCB] WRITE PASS CONTROL addr=20000000 data=00000001 awprot=011
# UVM_INFO C:/Documents/DoAnThietKeViMach/Project/SoC/VERIFICATION/Scoreboard/timer_scoreboard.sv(82) @ 3385000: uvm_test_top.env.scoreboard [TIMER_SCB] READ PASS addr=20000000 got=00000001
# UVM_INFO C:/Documents/DoAnThietKeViMach/Project/SoC/VERIFICATION/Scoreboard/timer_scoreboard.sv(52) @ 3435000: uvm_test_top.env.scoreboard [TIMER_SCB] WRITE PASS PERIOD addr=20000004 data=00000004 awprot=011
# UVM_INFO C:/Documents/DoAnThietKeViMach/Project/SoC/VERIFICATION/Scoreboard/timer_scoreboard.sv(82) @ 3485000: uvm_test_top.env.scoreboard [TIMER_SCB] READ PASS addr=20000004 got=00000004
# UVM_INFO C:/Documents/DoAnThietKeViMach/Project/SoC/VERIFICATION/Scoreboard/timer_scoreboard.sv(44) @ 3535000: uvm_test_top.env.scoreboard [TIMER_SCB] WRITE PASS CONTROL addr=20000000 data=00000000 awprot=100
# UVM_INFO C:/Documents/DoAnThietKeViMach/Project/SoC/VERIFICATION/Scoreboard/timer_scoreboard.sv(82) @ 3585000: uvm_test_top.env.scoreboard [TIMER_SCB] READ PASS addr=20000000 got=00000000
# UVM_INFO C:/Documents/DoAnThietKeViMach/Project/SoC/VERIFICATION/Scoreboard/timer_scoreboard.sv(52) @ 3635000: uvm_test_top.env.scoreboard [TIMER_SCB] WRITE PASS PERIOD addr=20000004 data=00000005 awprot=100
# UVM_INFO C:/Documents/DoAnThietKeViMach/Project/SoC/VERIFICATION/Scoreboard/timer_scoreboard.sv(82) @ 3685000: uvm_test_top.env.scoreboard [TIMER_SCB] READ PASS addr=20000004 got=00000005
# UVM_INFO C:/Documents/DoAnThietKeViMach/Project/SoC/VERIFICATION/Scoreboard/timer_scoreboard.sv(44) @ 3735000: uvm_test_top.env.scoreboard [TIMER_SCB] WRITE PASS CONTROL addr=20000000 data=00000001 awprot=101
# UVM_INFO C:/Documents/DoAnThietKeViMach/Project/SoC/VERIFICATION/Scoreboard/timer_scoreboard.sv(82) @ 3785000: uvm_test_top.env.scoreboard [TIMER_SCB] READ PASS addr=20000000 got=00000001
# UVM_INFO C:/Documents/DoAnThietKeViMach/Project/SoC/VERIFICATION/Scoreboard/timer_scoreboard.sv(52) @ 3835000: uvm_test_top.env.scoreboard [TIMER_SCB] WRITE PASS PERIOD addr=20000004 data=00000006 awprot=101
# UVM_INFO C:/Documents/DoAnThietKeViMach/Project/SoC/VERIFICATION/Scoreboard/timer_scoreboard.sv(82) @ 3885000: uvm_test_top.env.scoreboard [TIMER_SCB] READ PASS addr=20000004 got=00000006
# UVM_INFO C:/Documents/DoAnThietKeViMach/Project/SoC/VERIFICATION/Scoreboard/timer_scoreboard.sv(44) @ 3935000: uvm_test_top.env.scoreboard [TIMER_SCB] WRITE PASS CONTROL addr=20000000 data=00000000 awprot=110
# UVM_INFO C:/Documents/DoAnThietKeViMach/Project/SoC/VERIFICATION/Scoreboard/timer_scoreboard.sv(82) @ 3985000: uvm_test_top.env.scoreboard [TIMER_SCB] READ PASS addr=20000000 got=00000000
# UVM_INFO C:/Documents/DoAnThietKeViMach/Project/SoC/VERIFICATION/Scoreboard/timer_scoreboard.sv(52) @ 4035000: uvm_test_top.env.scoreboard [TIMER_SCB] WRITE PASS PERIOD addr=20000004 data=00000007 awprot=110
# UVM_INFO C:/Documents/DoAnThietKeViMach/Project/SoC/VERIFICATION/Scoreboard/timer_scoreboard.sv(82) @ 4085000: uvm_test_top.env.scoreboard [TIMER_SCB] READ PASS addr=20000004 got=00000007
# UVM_INFO C:/Documents/DoAnThietKeViMach/Project/SoC/VERIFICATION/Scoreboard/timer_scoreboard.sv(44) @ 4135000: uvm_test_top.env.scoreboard [TIMER_SCB] WRITE PASS CONTROL addr=20000000 data=00000001 awprot=111
# UVM_INFO C:/Documents/DoAnThietKeViMach/Project/SoC/VERIFICATION/Scoreboard/timer_scoreboard.sv(82) @ 4185000: uvm_test_top.env.scoreboard [TIMER_SCB] READ PASS addr=20000000 got=00000001
# UVM_INFO C:/Documents/DoAnThietKeViMach/Project/SoC/VERIFICATION/Scoreboard/timer_scoreboard.sv(52) @ 4235000: uvm_test_top.env.scoreboard [TIMER_SCB] WRITE PASS PERIOD addr=20000004 data=00000008 awprot=111
# UVM_INFO C:/Documents/DoAnThietKeViMach/Project/SoC/VERIFICATION/Scoreboard/timer_scoreboard.sv(82) @ 4285000: uvm_test_top.env.scoreboard [TIMER_SCB] READ PASS addr=20000004 got=00000008
# UVM_INFO C:/Documents/DoAnThietKeViMach/Project/SoC/VERIFICATION/Scoreboard/timer_scoreboard.sv(59) @ 4335000: uvm_test_top.env.scoreboard [TIMER_SCB] WRITE IGNORED addr=2000000c data=ca4a4264 awprot=100
# UVM_INFO C:/Documents/DoAnThietKeViMach/Project/SoC/VERIFICATION/Scoreboard/timer_scoreboard.sv(59) @ 4395000: uvm_test_top.env.scoreboard [TIMER_SCB] WRITE IGNORED addr=2000000c data=638057d1 awprot=101
# UVM_INFO C:/Documents/DoAnThietKeViMach/Project/SoC/VERIFICATION/Scoreboard/timer_scoreboard.sv(59) @ 4455000: uvm_test_top.env.scoreboard [TIMER_SCB] WRITE IGNORED addr=2000000c data=6e1c1b93 awprot=010
# UVM_INFO C:/Documents/DoAnThietKeViMach/Project/SoC/VERIFICATION/Scoreboard/timer_scoreboard.sv(44) @ 4515000: uvm_test_top.env.scoreboard [TIMER_SCB] WRITE PASS CONTROL addr=20000000 data=00000001 awprot=001
# UVM_INFO C:/Documents/DoAnThietKeViMach/Project/SoC/VERIFICATION/Scoreboard/timer_scoreboard.sv(71) @ 4565000: uvm_test_top.env.scoreboard [TIMER_SCB] COUNT volatile read = 00000006
# UVM_INFO C:/Documents/DoAnThietKeViMach/Project/SoC/VERIFICATION/Scoreboard/timer_scoreboard.sv(82) @ 4605000: uvm_test_top.env.scoreboard [TIMER_SCB] READ PASS addr=2000000c got=deadbeef
# UVM_INFO C:/Documents/DoAnThietKeViMach/Project/SoC/VERIFICATION/Scoreboard/timer_scoreboard.sv(82) @ 4645000: uvm_test_top.env.scoreboard [TIMER_SCB] READ PASS addr=20000000 got=00000001
# UVM_INFO C:/Documents/DoAnThietKeViMach/Project/SoC/VERIFICATION/Scoreboard/timer_scoreboard.sv(59) @ 4695000: uvm_test_top.env.scoreboard [TIMER_SCB] WRITE IGNORED addr=2000000c data=3f184e39 awprot=001
# UVM_INFO C:/Documents/DoAnThietKeViMach/Project/SoC/VERIFICATION/Scoreboard/timer_scoreboard.sv(52) @ 4755000: uvm_test_top.env.scoreboard [TIMER_SCB] WRITE PASS PERIOD addr=20000004 data=00000000 awprot=101
# UVM_INFO C:/Documents/DoAnThietKeViMach/Project/SoC/VERIFICATION/Scoreboard/timer_scoreboard.sv(71) @ 4805000: uvm_test_top.env.scoreboard [TIMER_SCB] COUNT volatile read = 00000003
# UVM_INFO C:/Documents/DoAnThietKeViMach/Project/SoC/VERIFICATION/Scoreboard/timer_scoreboard.sv(71) @ 4845000: uvm_test_top.env.scoreboard [TIMER_SCB] COUNT volatile read = 00000007
# UVM_INFO C:/Documents/DoAnThietKeViMach/Project/SoC/VERIFICATION/Scoreboard/timer_scoreboard.sv(52) @ 4895000: uvm_test_top.env.scoreboard [TIMER_SCB] WRITE PASS PERIOD addr=20000004 data=0000000b awprot=000
# UVM_INFO C:/Documents/DoAnThietKeViMach/Project/SoC/VERIFICATION/Scoreboard/timer_scoreboard.sv(44) @ 4955000: uvm_test_top.env.scoreboard [TIMER_SCB] WRITE PASS CONTROL addr=20000000 data=00000003 awprot=001
# UVM_INFO C:/Documents/DoAnThietKeViMach/Project/SoC/VERIFICATION/Scoreboard/timer_scoreboard.sv(71) @ 5005000: uvm_test_top.env.scoreboard [TIMER_SCB] COUNT volatile read = 00000008
# UVM_INFO C:/Documents/DoAnThietKeViMach/Project/SoC/VERIFICATION/Scoreboard/timer_scoreboard.sv(44) @ 5055000: uvm_test_top.env.scoreboard [TIMER_SCB] WRITE PASS CONTROL addr=20000000 data=00000000 awprot=001
# UVM_INFO C:/Documents/DoAnThietKeViMach/Project/SoC/VERIFICATION/Scoreboard/timer_scoreboard.sv(44) @ 5115000: uvm_test_top.env.scoreboard [TIMER_SCB] WRITE PASS CONTROL addr=20000000 data=00000003 awprot=110
# UVM_INFO C:/Documents/DoAnThietKeViMach/Project/SoC/VERIFICATION/Scoreboard/timer_scoreboard.sv(59) @ 5175000: uvm_test_top.env.scoreboard [TIMER_SCB] WRITE IGNORED addr=2000000c data=fba6e668 awprot=110
# UVM_INFO C:/Documents/DoAnThietKeViMach/Project/SoC/VERIFICATION/Scoreboard/timer_scoreboard.sv(82) @ 5225000: uvm_test_top.env.scoreboard [TIMER_SCB] READ PASS addr=20000004 got=0000000b
# UVM_INFO C:/Documents/DoAnThietKeViMach/Project/SoC/VERIFICATION/Scoreboard/timer_scoreboard.sv(52) @ 5275000: uvm_test_top.env.scoreboard [TIMER_SCB] WRITE PASS PERIOD addr=20000004 data=00000064 awprot=001
# UVM_INFO C:/Documents/DoAnThietKeViMach/Project/SoC/VERIFICATION/Scoreboard/timer_scoreboard.sv(44) @ 5335000: uvm_test_top.env.scoreboard [TIMER_SCB] WRITE PASS CONTROL addr=20000000 data=00000003 awprot=110
# UVM_INFO C:/Documents/DoAnThietKeViMach/Project/SoC/VERIFICATION/Scoreboard/timer_scoreboard.sv(71) @ 5385000: uvm_test_top.env.scoreboard [TIMER_SCB] COUNT volatile read = 0000000d
# UVM_INFO C:/Documents/DoAnThietKeViMach/Project/SoC/VERIFICATION/Scoreboard/timer_scoreboard.sv(52) @ 5435000: uvm_test_top.env.scoreboard [TIMER_SCB] WRITE PASS PERIOD addr=20000004 data=00000008 awprot=111
# UVM_INFO C:/Documents/DoAnThietKeViMach/Project/SoC/VERIFICATION/Scoreboard/timer_scoreboard.sv(44) @ 5495000: uvm_test_top.env.scoreboard [TIMER_SCB] WRITE PASS CONTROL addr=20000000 data=00000000 awprot=100
# UVM_INFO C:/Documents/DoAnThietKeViMach/Project/SoC/VERIFICATION/Scoreboard/timer_scoreboard.sv(52) @ 5555000: uvm_test_top.env.scoreboard [TIMER_SCB] WRITE PASS PERIOD addr=20000004 data=0000000e awprot=001
